{
    "apiVersion": "v1",
    "items": [
        {
            "apiVersion": "v1",
            "kind": "Node",
            "metadata": {
                "annotations": {
                    "flannel.alpha.coreos.com/backend-data": "null",
                    "flannel.alpha.coreos.com/backend-type": "host-gw",
                    "flannel.alpha.coreos.com/kube-subnet-manager": "true",
                    "flannel.alpha.coreos.com/public-ip": "172.17.0.21",
                    "kubeadm.alpha.kubernetes.io/cri-socket": "/var/run/dockershim.sock",
                    "node.alpha.kubernetes.io/ttl": "0",
                    "volumes.kubernetes.io/controller-managed-attach-detach": "true"
                },
                "creationTimestamp": "2021-09-19T10:11:36Z",
                "labels": {
                    "beta.kubernetes.io/arch": "amd64",
                    "beta.kubernetes.io/os": "linux",
                    "kubernetes.io/arch": "amd64",
                    "kubernetes.io/hostname": "controlplane",
                    "kubernetes.io/os": "linux",
                    "node-role.kubernetes.io/master": ""
                },
                "managedFields": [
                    {
                        "apiVersion": "v1",
                        "fieldsType": "FieldsV1",
                        "fieldsV1": {
                            "f:metadata": {
                                "f:annotations": {
                                    "f:kubeadm.alpha.kubernetes.io/cri-socket": {}
                                },
                                "f:labels": {
                                    "f:node-role.kubernetes.io/master": {}
                                }
                            }
                        },
                        "manager": "kubeadm",
                        "operation": "Update",
                        "time": "2021-09-19T10:11:39Z"
                    },
                    {
                        "apiVersion": "v1",
                        "fieldsType": "FieldsV1",
                        "fieldsV1": {
                            "f:metadata": {
                                "f:annotations": {
                                    "f:node.alpha.kubernetes.io/ttl": {}
                                }
                            },
                            "f:spec": {
                                "f:podCIDR": {},
                                "f:podCIDRs": {
                                    ".": {},
                                    "v:\"10.244.0.0/24\"": {}
                                },
                                "f:taints": {}
                            }
                        },
                        "manager": "kube-controller-manager",
                        "operation": "Update",
                        "time": "2021-09-19T10:12:06Z"
                    },
                    {
                        "apiVersion": "v1",
                        "fieldsType": "FieldsV1",
                        "fieldsV1": {
                            "f:metadata": {
                                "f:annotations": {
                                    "f:flannel.alpha.coreos.com/backend-data": {},
                                    "f:flannel.alpha.coreos.com/backend-type": {},
                                    "f:flannel.alpha.coreos.com/kube-subnet-manager": {},
                                    "f:flannel.alpha.coreos.com/public-ip": {}
                                }
                            },
                            "f:status": {
                                "f:conditions": {
                                    "k:{\"type\":\"NetworkUnavailable\"}": {
                                        ".": {},
                                        "f:lastHeartbeatTime": {},
                                        "f:lastTransitionTime": {},
                                        "f:message": {},
                                        "f:reason": {},
                                        "f:status": {},
                                        "f:type": {}
                                    }
                                }
                            }
                        },
                        "manager": "flanneld",
                        "operation": "Update",
                        "time": "2021-09-19T10:12:07Z"
                    },
                    {
                        "apiVersion": "v1",
                        "fieldsType": "FieldsV1",
                        "fieldsV1": {
                            "f:metadata": {
                                "f:annotations": {
                                    ".": {},
                                    "f:volumes.kubernetes.io/controller-managed-attach-detach": {}
                                },
                                "f:labels": {
                                    ".": {},
                                    "f:beta.kubernetes.io/arch": {},
                                    "f:beta.kubernetes.io/os": {},
                                    "f:kubernetes.io/arch": {},
                                    "f:kubernetes.io/hostname": {},
                                    "f:kubernetes.io/os": {}
                                }
                            },
                            "f:status": {
                                "f:addresses": {
                                    ".": {},
                                    "k:{\"type\":\"Hostname\"}": {
                                        ".": {},
                                        "f:address": {},
                                        "f:type": {}
                                    },
                                    "k:{\"type\":\"InternalIP\"}": {
                                        ".": {},
                                        "f:address": {},
                                        "f:type": {}
                                    }
                                },
                                "f:allocatable": {
                                    ".": {},
                                    "f:cpu": {},
                                    "f:ephemeral-storage": {},
                                    "f:hugepages-1Gi": {},
                                    "f:hugepages-2Mi": {},
                                    "f:memory": {},
                                    "f:pods": {}
                                },
                                "f:capacity": {
                                    ".": {},
                                    "f:cpu": {},
                                    "f:ephemeral-storage": {},
                                    "f:hugepages-1Gi": {},
                                    "f:hugepages-2Mi": {},
                                    "f:memory": {},
                                    "f:pods": {}
                                },
                                "f:conditions": {
                                    ".": {},
                                    "k:{\"type\":\"DiskPressure\"}": {
                                        ".": {},
                                        "f:lastHeartbeatTime": {},
                                        "f:lastTransitionTime": {},
                                        "f:message": {},
                                        "f:reason": {},
                                        "f:status": {},
                                        "f:type": {}
                                    },
                                    "k:{\"type\":\"MemoryPressure\"}": {
                                        ".": {},
                                        "f:lastHeartbeatTime": {},
                                        "f:lastTransitionTime": {},
                                        "f:message": {},
                                        "f:reason": {},
                                        "f:status": {},
                                        "f:type": {}
                                    },
                                    "k:{\"type\":\"PIDPressure\"}": {
                                        ".": {},
                                        "f:lastHeartbeatTime": {},
                                        "f:lastTransitionTime": {},
                                        "f:message": {},
                                        "f:reason": {},
                                        "f:status": {},
                                        "f:type": {}
                                    },
                                    "k:{\"type\":\"Ready\"}": {
                                        ".": {},
                                        "f:lastHeartbeatTime": {},
                                        "f:lastTransitionTime": {},
                                        "f:message": {},
                                        "f:reason": {},
                                        "f:status": {},
                                        "f:type": {}
                                    }
                                },
                                "f:daemonEndpoints": {
                                    "f:kubeletEndpoint": {
                                        "f:Port": {}
                                    }
                                },
                                "f:images": {},
                                "f:nodeInfo": {
                                    "f:architecture": {},
                                    "f:bootID": {},
                                    "f:containerRuntimeVersion": {},
                                    "f:kernelVersion": {},
                                    "f:kubeProxyVersion": {},
                                    "f:kubeletVersion": {},
                                    "f:machineID": {},
                                    "f:operatingSystem": {},
                                    "f:osImage": {},
                                    "f:systemUUID": {}
                                }
                            }
                        },
                        "manager": "kubelet",
                        "operation": "Update",
                        "time": "2021-09-19T10:12:16Z"
                    }
                ],
                "name": "controlplane",
                "resourceVersion": "585",
                "selfLink": "/api/v1/nodes/controlplane",
                "uid": "c3b4b62e-8a3b-437c-a3f8-bfed145b131e"
            },
            "spec": {
                "podCIDR": "10.244.0.0/24",
                "podCIDRs": [
                    "10.244.0.0/24"
                ],
                "taints": [
                    {
                        "effect": "NoSchedule",
                        "key": "node-role.kubernetes.io/master"
                    }
                ]
            },
            "status": {
                "addresses": [
                    {
                        "address": "172.17.0.21",
                        "type": "InternalIP"
                    },
                    {
                        "address": "controlplane",
                        "type": "Hostname"
                    }
                ],
                "allocatable": {
                    "cpu": "2",
                    "ephemeral-storage": "183900826525",
                    "hugepages-1Gi": "0",
                    "hugepages-2Mi": "0",
                    "memory": "1938280Ki",
                    "pods": "110"
                },
                "capacity": {
                    "cpu": "2",
                    "ephemeral-storage": "199545168Ki",
                    "hugepages-1Gi": "0",
                    "hugepages-2Mi": "0",
                    "memory": "2040680Ki",
                    "pods": "110"
                },
                "conditions": [
                    {
                        "lastHeartbeatTime": "2021-09-19T10:12:07Z",
                        "lastTransitionTime": "2021-09-19T10:12:07Z",
                        "message": "Flannel is running on this node",
                        "reason": "FlannelIsUp",
                        "status": "False",
                        "type": "NetworkUnavailable"
                    },
                    {
                        "lastHeartbeatTime": "2021-09-19T10:12:16Z",
                        "lastTransitionTime": "2021-09-19T10:11:32Z",
                        "message": "kubelet has sufficient memory available",
                        "reason": "KubeletHasSufficientMemory",
                        "status": "False",
                        "type": "MemoryPressure"
                    },
                    {
                        "lastHeartbeatTime": "2021-09-19T10:12:16Z",
                        "lastTransitionTime": "2021-09-19T10:11:32Z",
                        "message": "kubelet has no disk pressure",
                        "reason": "KubeletHasNoDiskPressure",
                        "status": "False",
                        "type": "DiskPressure"
                    },
                    {
                        "lastHeartbeatTime": "2021-09-19T10:12:16Z",
                        "lastTransitionTime": "2021-09-19T10:11:32Z",
                        "message": "kubelet has sufficient PID available",
                        "reason": "KubeletHasSufficientPID",
                        "status": "False",
                        "type": "PIDPressure"
                    },
                    {
                        "lastHeartbeatTime": "2021-09-19T10:12:16Z",
                        "lastTransitionTime": "2021-09-19T10:12:06Z",
                        "message": "kubelet is posting ready status. AppArmor enabled",
                        "reason": "KubeletReady",
                        "status": "True",
                        "type": "Ready"
                    }
                ],
                "daemonEndpoints": {
                    "kubeletEndpoint": {
                        "Port": 10250
                    }
                },
                "images": [
                    {
                        "names": [
                            "kindest/node@sha256:0e20578828edd939d25eb98496a685c76c98d54084932f76069f886ec315d694",
                            "kindest/node:v1.18.0"
                        ],
                        "sizeBytes": 1258778691
                    },
                    {
                        "names": [
                            "quay.io/ansible/molecule@sha256:3298ba01626942869371dd2783742339c465ca03b00130e08e1dd16959c5e72e",
                            "quay.io/ansible/molecule:2.20"
                        ],
                        "sizeBytes": 704453798
                    },
                    {
                        "names": [
                            "mysql@sha256:8c17271df53ee3b843d6e16d46cff13f22c9c04d6982eb15a9a47bd5c9ac7e2d",
                            "mysql:8",
                            "mysql:latest"
                        ],
                        "sizeBytes": 545261538
                    },
                    {
                        "names": [
                            "mongo@sha256:efc408845bc917d0b7fd97a8590e9c8d3c314f58cee651bd3030c9cf2ce9032d",
                            "mongo:latest"
                        ],
                        "sizeBytes": 492108353
                    },
                    {
                        "names": [
                            "mariadb@sha256:2960a3d1ddb35dd454066b45005b4f694e18af76648833f1b9d93ab90cee7cf2",
                            "mariadb:10",
                            "mariadb:latest"
                        ],
                        "sizeBytes": 413646706
                    },
                    {
                        "names": [
                            "postgres@sha256:8f7c3c9b61d82a4a021da5d9618faf056633e089302a726d619fa467c73609e4",
                            "postgres:latest"
                        ],
                        "sizeBytes": 314103987
                    },
                    {
                        "names": [
                            "postgres@sha256:a1e04460fdd3c338d6b65a2ab66b5aa2748eb18da3e55bcdc9ef17831ed3ad46",
                            "postgres:12"
                        ],
                        "sizeBytes": 313885624
                    },
                    {
                        "names": [
                            "k8s.gcr.io/etcd@sha256:4afb99b4690b418ffc2ceb67e1a17376457e441c1f09ab55447f0aaf992fa646",
                            "k8s.gcr.io/etcd:3.4.3-0"
                        ],
                        "sizeBytes": 288425539
                    },
                    {
                        "names": [
                            "docker@sha256:9170b902404a630a982a2a6473442d3e2cc2342b66345f7a9cf148f8affcf5d3",
                            "docker:latest"
                        ],
                        "sizeBytes": 217149184
                    },
                    {
                        "names": [
                            "k8s.gcr.io/kube-apiserver@sha256:fc4efb55c2a7d4e7b9a858c67e24f00e739df4ef5082500c2b60ea0903f18248",
                            "k8s.gcr.io/kube-apiserver:v1.18.0"
                        ],
                        "sizeBytes": 172962942
                    },
                    {
                        "names": [
                            "k8s.gcr.io/kube-controller-manager@sha256:d926b172b8fc3568d8eab9736b2f79a1afefcb809d030dd4465cbb0d444ce293",
                            "k8s.gcr.io/kube-controller-manager:v1.18.0"
                        ],
                        "sizeBytes": 162366590
                    },
                    {
                        "names": [
                            "k8s.gcr.io/kubernetes-dashboard-amd64@sha256:1d2e1229a918f4bc38b5a3f9f5f11302b3e71f8397b492afac7f273a0008776a",
                            "k8s.gcr.io/kubernetes-dashboard-amd64:v1.10.0"
                        ],
                        "sizeBytes": 122460923
                    },
                    {
                        "names": [
                            "k8s.gcr.io/kube-proxy@sha256:9e858386d52d0abaf936c1d10a763648ab7d85c8eb0af08a50a64238146e5571",
                            "k8s.gcr.io/kube-proxy:v1.18.0"
                        ],
                        "sizeBytes": 116531001
                    },
                    {
                        "names": [
                            "katacoda/katacoda-cloud-provider@sha256:a3fc724edf55caf8a61601ed0ee63fef1a4a0722a9bdbfe75c4a0162bc20a26a",
                            "katacoda/katacoda-cloud-provider:0.0.1"
                        ],
                        "sizeBytes": 116021307
                    },
                    {
                        "names": [
                            "prom/prometheus@sha256:129e16b08818a47259d972767fd834d84fb70ca11b423cc9976c9bce9b40c58f",
                            "prom/prometheus:v2.2.1"
                        ],
                        "sizeBytes": 113268574
                    },
                    {
                        "names": [
                            "gcr.io/google_containers/kubernetes-dashboard-amd64@sha256:4ad64dfa7159ff4a99a65a4f96432f2fdb6542857cf230858b3159017833a882",
                            "gcr.io/google_containers/kubernetes-dashboard-amd64:v1.6.0"
                        ],
                        "sizeBytes": 108572029
                    },
                    {
                        "names": [
                            "redis@sha256:a0494b60a0bc6de161d26dc2d2f9d2f1c5435e86a9e5d48862a161131affa6bd",
                            "redis:latest"
                        ],
                        "sizeBytes": 104226532
                    },
                    {
                        "names": [
                            "k8s.gcr.io/kube-scheduler@sha256:33063bc856e99d12b9cb30aab1c1c755ecd458d5bd130270da7c51c70ca10cf6",
                            "k8s.gcr.io/kube-scheduler:v1.18.0"
                        ],
                        "sizeBytes": 95274110
                    },
                    {
                        "names": [
                            "gcr.io/kubernetes-helm/tiller@sha256:d52b34a9f9aeec1cf74155ca51fcbb5d872a705914565c782be4531790a4ee0e",
                            "gcr.io/kubernetes-helm/tiller:v2.13.1"
                        ],
                        "sizeBytes": 82083791
                    },
                    {
                        "names": [
                            "weaveworks/scope@sha256:8c44d6761e197cc5c901d8b017d3afc528d3437aa057d5f2dee7fab39a9bfb3f",
                            "weaveworks/scope:1.11.4"
                        ],
                        "sizeBytes": 78473749
                    },
                    {
                        "names": [
                            "prom/prometheus@sha256:4bf7ad89d607dd8de2f0cff1df554269bff19fe0f18ee482660f7a5dc685d549",
                            "prom/prometheus:v1.7.1"
                        ],
                        "sizeBytes": 74493949
                    },
                    {
                        "names": [
                            "python@sha256:33cb6cc0bf14c9e594306eee7d9f27e94135dab9c2d0d9de02694a1fcb13ad9e",
                            "python:3.6-alpine3.7"
                        ],
                        "sizeBytes": 74238552
                    },
                    {
                        "names": [
                            "ubuntu@sha256:fff16eea1a8ae92867721d90c59a75652ea66d29c05294e6e2f898704bdb8cf1",
                            "ubuntu:latest"
                        ],
                        "sizeBytes": 72876612
                    },
                    {
                        "names": [
                            "node@sha256:9cd67a00ed111285460a83847720132204185e9321ec35dacec0d8b9bf674adf",
                            "node:9.4-alpine"
                        ],
                        "sizeBytes": 68023408
                    },
                    {
                        "names": [
                            "quay.io/coreos/flannel@sha256:a2f5081b71ee4688d0c7693d7e5f2f95e9eea5ea3b4147a12179f55ede42c185",
                            "quay.io/coreos/flannel:v0.12.0-arm64"
                        ],
                        "sizeBytes": 53582226
                    },
                    {
                        "names": [
                            "quay.io/coreos/flannel@sha256:6d451d92c921f14bfb38196aacb6e506d4593c5b3c9d40a8b8a2506010dc3e10",
                            "quay.io/coreos/flannel:v0.12.0-amd64"
                        ],
                        "sizeBytes": 52745840
                    },
                    {
                        "names": [
                            "k8s.gcr.io/k8s-dns-kube-dns-amd64@sha256:6d8e0da4fb46e9ea2034a3f4cab0e095618a2ead78720c12e791342738e5f85d",
                            "k8s.gcr.io/k8s-dns-kube-dns-amd64:1.14.8"
                        ],
                        "sizeBytes": 50452419
                    },
                    {
                        "names": [
                            "k8s.gcr.io/coredns@sha256:2c8d61c46f484d881db43b34d13ca47a269336e576c81cf007ca740fa9ec0800",
                            "k8s.gcr.io/coredns:1.6.7"
                        ],
                        "sizeBytes": 43781501
                    },
                    {
                        "names": [
                            "ruby@sha256:c95eee04fac35a7e85d4529eda9c0933b05372ca9ed8fc7eaaff81d061591441",
                            "ruby:2.5-alpine3.7"
                        ],
                        "sizeBytes": 43703874
                    },
                    {
                        "names": [
                            "quay.io/coreos/etcd@sha256:5b6691b7225a3f77a5a919a81261bbfb31283804418e187f7116a0a9ef65d21d",
                            "quay.io/coreos/etcd:latest"
                        ],
                        "sizeBytes": 39449808
                    },
                    {
                        "names": [
                            "prom/node-exporter@sha256:6965ed8f31c5edba19d269d10238f59624e6b004f650ce925b3408ce222f9e49",
                            "prom/node-exporter:v0.15.2"
                        ],
                        "sizeBytes": 22804969
                    },
                    {
                        "names": [
                            "prom/node-exporter@sha256:ea8396dd32be6195ef03438b2f459b2e69a88b8fc798c3fc51559f56d4b158fa",
                            "prom/node-exporter:v0.14.0"
                        ],
                        "sizeBytes": 18897129
                    },
                    {
                        "names": [
                            "alpine@sha256:c0e9560cda118f9ec63ddefb4a173a2b2a0347082d7dff7dc14272e7841a5b5a",
                            "alpine:latest"
                        ],
                        "sizeBytes": 5568652
                    },
                    {
                        "names": [
                            "alpine@sha256:2bb501e6173d9d006e56de5bce2720eb06396803300fe1687b58a7ff32bf4c14",
                            "alpine:3.8"
                        ],
                        "sizeBytes": 4408909
                    },
                    {
                        "names": [
                            "alpine@sha256:8421d9a84432575381bfabd248f1eb56f3aa21d9d7cd2511583c68c9b7511d10",
                            "alpine:3.7"
                        ],
                        "sizeBytes": 4202110
                    },
                    {
                        "names": [
                            "k8s.gcr.io/pause@sha256:927d98197ec1141a368550822d18fa1c60bdae27b78b0c004f705f548c07814f",
                            "k8s.gcr.io/pause:3.2"
                        ],
                        "sizeBytes": 682696
                    }
                ],
                "nodeInfo": {
                    "architecture": "amd64",
                    "bootID": "26cfbac2-2498-4114-bebd-97fc2f39fa98",
                    "containerRuntimeVersion": "docker://19.3.13",
                    "kernelVersion": "4.15.0-122-generic",
                    "kubeProxyVersion": "v1.18.0",
                    "kubeletVersion": "v1.18.0",
                    "machineID": "200df2a9c61f27fbb8eaec415fb272e4",
                    "operatingSystem": "linux",
                    "osImage": "Ubuntu 18.04.5 LTS",
                    "systemUUID": "200df2a9c61f27fbb8eaec415fb272e4"
                }
            }
        },
        {
            "apiVersion": "v1",
            "kind": "Node",
            "metadata": {
                "annotations": {
                    "flannel.alpha.coreos.com/backend-data": "null",
                    "flannel.alpha.coreos.com/backend-type": "host-gw",
                    "flannel.alpha.coreos.com/kube-subnet-manager": "true",
                    "flannel.alpha.coreos.com/public-ip": "172.17.0.24",
                    "kubeadm.alpha.kubernetes.io/cri-socket": "/var/run/dockershim.sock",
                    "node.alpha.kubernetes.io/ttl": "0",
                    "volumes.kubernetes.io/controller-managed-attach-detach": "true"
                },
                "creationTimestamp": "2021-09-19T10:12:04Z",
                "labels": {
                    "beta.kubernetes.io/arch": "amd64",
                    "beta.kubernetes.io/os": "linux",
                    "kubernetes.io/arch": "amd64",
                    "kubernetes.io/hostname": "node01",
                    "kubernetes.io/os": "linux"
                },
                "managedFields": [
                    {
                        "apiVersion": "v1",
                        "fieldsType": "FieldsV1",
                        "fieldsV1": {
                            "f:metadata": {
                                "f:annotations": {
                                    "f:kubeadm.alpha.kubernetes.io/cri-socket": {}
                                }
                            }
                        },
                        "manager": "kubeadm",
                        "operation": "Update",
                        "time": "2021-09-19T10:12:04Z"
                    },
                    {
                        "apiVersion": "v1",
                        "fieldsType": "FieldsV1",
                        "fieldsV1": {
                            "f:metadata": {
                                "f:annotations": {
                                    "f:node.alpha.kubernetes.io/ttl": {}
                                }
                            },
                            "f:spec": {
                                "f:podCIDR": {},
                                "f:podCIDRs": {
                                    ".": {},
                                    "v:\"10.244.1.0/24\"": {}
                                }
                            }
                        },
                        "manager": "kube-controller-manager",
                        "operation": "Update",
                        "time": "2021-09-19T10:12:24Z"
                    },
                    {
                        "apiVersion": "v1",
                        "fieldsType": "FieldsV1",
                        "fieldsV1": {
                            "f:metadata": {
                                "f:annotations": {
                                    ".": {},
                                    "f:volumes.kubernetes.io/controller-managed-attach-detach": {}
                                },
                                "f:labels": {
                                    ".": {},
                                    "f:beta.kubernetes.io/arch": {},
                                    "f:beta.kubernetes.io/os": {},
                                    "f:kubernetes.io/arch": {},
                                    "f:kubernetes.io/hostname": {},
                                    "f:kubernetes.io/os": {}
                                }
                            },
                            "f:status": {
                                "f:addresses": {
                                    ".": {},
                                    "k:{\"type\":\"Hostname\"}": {
                                        ".": {},
                                        "f:address": {},
                                        "f:type": {}
                                    },
                                    "k:{\"type\":\"InternalIP\"}": {
                                        ".": {},
                                        "f:address": {},
                                        "f:type": {}
                                    }
                                },
                                "f:allocatable": {
                                    ".": {},
                                    "f:cpu": {},
                                    "f:ephemeral-storage": {},
                                    "f:hugepages-1Gi": {},
                                    "f:hugepages-2Mi": {},
                                    "f:memory": {},
                                    "f:pods": {}
                                },
                                "f:capacity": {
                                    ".": {},
                                    "f:cpu": {},
                                    "f:ephemeral-storage": {},
                                    "f:hugepages-1Gi": {},
                                    "f:hugepages-2Mi": {},
                                    "f:memory": {},
                                    "f:pods": {}
                                },
                                "f:conditions": {
                                    ".": {},
                                    "k:{\"type\":\"DiskPressure\"}": {
                                        ".": {},
                                        "f:lastHeartbeatTime": {},
                                        "f:lastTransitionTime": {},
                                        "f:message": {},
                                        "f:reason": {},
                                        "f:status": {},
                                        "f:type": {}
                                    },
                                    "k:{\"type\":\"MemoryPressure\"}": {
                                        ".": {},
                                        "f:lastHeartbeatTime": {},
                                        "f:lastTransitionTime": {},
                                        "f:message": {},
                                        "f:reason": {},
                                        "f:status": {},
                                        "f:type": {}
                                    },
                                    "k:{\"type\":\"PIDPressure\"}": {
                                        ".": {},
                                        "f:lastHeartbeatTime": {},
                                        "f:lastTransitionTime": {},
                                        "f:message": {},
                                        "f:reason": {},
                                        "f:status": {},
                                        "f:type": {}
                                    },
                                    "k:{\"type\":\"Ready\"}": {
                                        ".": {},
                                        "f:lastHeartbeatTime": {},
                                        "f:lastTransitionTime": {},
                                        "f:message": {},
                                        "f:reason": {},
                                        "f:status": {},
                                        "f:type": {}
                                    }
                                },
                                "f:daemonEndpoints": {
                                    "f:kubeletEndpoint": {
                                        "f:Port": {}
                                    }
                                },
                                "f:images": {},
                                "f:nodeInfo": {
                                    "f:architecture": {},
                                    "f:bootID": {},
                                    "f:containerRuntimeVersion": {},
                                    "f:kernelVersion": {},
                                    "f:kubeProxyVersion": {},
                                    "f:kubeletVersion": {},
                                    "f:machineID": {},
                                    "f:operatingSystem": {},
                                    "f:osImage": {},
                                    "f:systemUUID": {}
                                }
                            }
                        },
                        "manager": "kubelet",
                        "operation": "Update",
                        "time": "2021-09-19T10:12:34Z"
                    },
                    {
                        "apiVersion": "v1",
                        "fieldsType": "FieldsV1",
                        "fieldsV1": {
                            "f:metadata": {
                                "f:annotations": {
                                    "f:flannel.alpha.coreos.com/backend-data": {},
                                    "f:flannel.alpha.coreos.com/backend-type": {},
                                    "f:flannel.alpha.coreos.com/kube-subnet-manager": {},
                                    "f:flannel.alpha.coreos.com/public-ip": {}
                                }
                            },
                            "f:status": {
                                "f:conditions": {
                                    "k:{\"type\":\"NetworkUnavailable\"}": {
                                        ".": {},
                                        "f:lastHeartbeatTime": {},
                                        "f:lastTransitionTime": {},
                                        "f:message": {},
                                        "f:reason": {},
                                        "f:status": {},
                                        "f:type": {}
                                    }
                                }
                            }
                        },
                        "manager": "flanneld",
                        "operation": "Update",
                        "time": "2021-09-19T10:12:49Z"
                    }
                ],
                "name": "node01",
                "resourceVersion": "713",
                "selfLink": "/api/v1/nodes/node01",
                "uid": "1ee007dd-f4aa-4536-a71d-37f5bafef4a3"
            },
            "spec": {
                "podCIDR": "10.244.1.0/24",
                "podCIDRs": [
                    "10.244.1.0/24"
                ]
            },
            "status": {
                "addresses": [
                    {
                        "address": "172.17.0.24",
                        "type": "InternalIP"
                    },
                    {
                        "address": "node01",
                        "type": "Hostname"
                    }
                ],
                "allocatable": {
                    "cpu": "2",
                    "ephemeral-storage": "183900826525",
                    "hugepages-1Gi": "0",
                    "hugepages-2Mi": "0",
                    "memory": "3936712Ki",
                    "pods": "110"
                },
                "capacity": {
                    "cpu": "2",
                    "ephemeral-storage": "199545168Ki",
                    "hugepages-1Gi": "0",
                    "hugepages-2Mi": "0",
                    "memory": "4039112Ki",
                    "pods": "110"
                },
                "conditions": [
                    {
                        "lastHeartbeatTime": "2021-09-19T10:12:49Z",
                        "lastTransitionTime": "2021-09-19T10:12:49Z",
                        "message": "Flannel is running on this node",
                        "reason": "FlannelIsUp",
                        "status": "False",
                        "type": "NetworkUnavailable"
                    },
                    {
                        "lastHeartbeatTime": "2021-09-19T10:12:34Z",
                        "lastTransitionTime": "2021-09-19T10:12:03Z",
                        "message": "kubelet has sufficient memory available",
                        "reason": "KubeletHasSufficientMemory",
                        "status": "False",
                        "type": "MemoryPressure"
                    },
                    {
                        "lastHeartbeatTime": "2021-09-19T10:12:34Z",
                        "lastTransitionTime": "2021-09-19T10:12:03Z",
                        "message": "kubelet has no disk pressure",
                        "reason": "KubeletHasNoDiskPressure",
                        "status": "False",
                        "type": "DiskPressure"
                    },
                    {
                        "lastHeartbeatTime": "2021-09-19T10:12:34Z",
                        "lastTransitionTime": "2021-09-19T10:12:03Z",
                        "message": "kubelet has sufficient PID available",
                        "reason": "KubeletHasSufficientPID",
                        "status": "False",
                        "type": "PIDPressure"
                    },
                    {
                        "lastHeartbeatTime": "2021-09-19T10:12:34Z",
                        "lastTransitionTime": "2021-09-19T10:12:24Z",
                        "message": "kubelet is posting ready status. AppArmor enabled",
                        "reason": "KubeletReady",
                        "status": "True",
                        "type": "Ready"
                    }
                ],
                "daemonEndpoints": {
                    "kubeletEndpoint": {
                        "Port": 10250
                    }
                },
                "images": [
                    {
                        "names": [
                            "portworx/px-enterprise@sha256:0b9058862f05e3af6cadd7a0aaa092d6115c59269911ac847fee5c533cc9f473",
                            "portworx/px-enterprise:2.0.2.3"
                        ],
                        "sizeBytes": 2326923453
                    },
                    {
                        "names": [
                            "microsoft/mssql-server-linux@sha256:9b700672670bb3db4b212e8aef841ca79eb2fce7d5975a5ce35b7129a9b90ec0",
                            "microsoft/mssql-server-linux:latest"
                        ],
                        "sizeBytes": 1353071523
                    },
                    {
                        "names": [
                            "docker.elastic.co/kibana/kibana@sha256:2da2e99561d8df1d2863d7b68a12c0601ed9f65d760d114224241512ce1a14ea",
                            "docker.elastic.co/kibana/kibana:6.2.4"
                        ],
                        "sizeBytes": 933247846
                    },
                    {
                        "names": [
                            "quay.io/ansible/molecule@sha256:3298ba01626942869371dd2783742339c465ca03b00130e08e1dd16959c5e72e",
                            "quay.io/ansible/molecule:2.20"
                        ],
                        "sizeBytes": 704453798
                    },
                    {
                        "names": [
                            "quay.io/coreos/hyperkube@sha256:699fc03fccb1c4662fee9d996cf30106aea55a6f594d16c1504cc7334dadcee4",
                            "quay.io/coreos/hyperkube:v1.7.6_coreos.0"
                        ],
                        "sizeBytes": 699395414
                    },
                    {
                        "names": [
                            "mysql@sha256:8c17271df53ee3b843d6e16d46cff13f22c9c04d6982eb15a9a47bd5c9ac7e2d",
                            "mysql:8",
                            "mysql:latest"
                        ],
                        "sizeBytes": 545261538
                    },
                    {
                        "names": [
                            "istio/examples-bookinfo-reviews-v1@sha256:920d46b3c526376b28b90d0e895ca7682d36132e6338301fcbcd567ef81bde05",
                            "istio/examples-bookinfo-reviews-v1:1.8.0"
                        ],
                        "sizeBytes": 525046218
                    },
                    {
                        "names": [
                            "istio/examples-bookinfo-reviews-v3@sha256:8c0385f0ca799e655d8770b52cb4618ba54e8966a0734ab1aeb6e8b14e171a3b",
                            "istio/examples-bookinfo-reviews-v3:1.8.0"
                        ],
                        "sizeBytes": 525046218
                    },
                    {
                        "names": [
                            "istio/examples-bookinfo-reviews-v2@sha256:d2483dcb235b27309680177726e4e86905d66e47facaf1d57ed590b2bf95c8ad",
                            "istio/examples-bookinfo-reviews-v2:1.8.0"
                        ],
                        "sizeBytes": 525046218
                    },
                    {
                        "names": [
                            "docker.elastic.co/elasticsearch/elasticsearch@sha256:9ae20c753f18e27d1dd167b8675ba95de20b1f1ae5999aae5077fa2daf38919e",
                            "docker.elastic.co/elasticsearch/elasticsearch:6.2.4"
                        ],
                        "sizeBytes": 514505674
                    },
                    {
                        "names": [
                            "gcr.io/google_samples/gb-frontend@sha256:d44e7d7491a537f822e7fe8615437e4a8a08f3a7a1d7d4cb9066b92f7556ba6d",
                            "gcr.io/google_samples/gb-frontend:v4"
                        ],
                        "sizeBytes": 512107183
                    },
                    {
                        "names": [
                            "gcr.io/google_samples/gb-frontend@sha256:50b22839aaf6a18586d6751e8963cf684c27b9873ca926df22cdf88ed4452615",
                            "gcr.io/google_samples/gb-frontend:v3"
                        ],
                        "sizeBytes": 509653334
                    },
                    {
                        "names": [
                            "mongo@sha256:efc408845bc917d0b7fd97a8590e9c8d3c314f58cee651bd3030c9cf2ce9032d",
                            "mongo:latest"
                        ],
                        "sizeBytes": 492108353
                    },
                    {
                        "names": [
                            "k8s.gcr.io/redis@sha256:f066bcf26497fbc55b9bf0769cb13a35c0afa2aa42e737cc46b7fb04b23a2f25",
                            "k8s.gcr.io/redis:e2e"
                        ],
                        "sizeBytes": 418929769
                    },
                    {
                        "names": [
                            "mariadb@sha256:2960a3d1ddb35dd454066b45005b4f694e18af76648833f1b9d93ab90cee7cf2",
                            "mariadb:10",
                            "mariadb:latest"
                        ],
                        "sizeBytes": 413646706
                    },
                    {
                        "names": [
                            "bitnami/mongodb@sha256:d49ef0eb5e8e0bf9eeef25734822a63783ec052f60b01a7fd9869cd72773894f",
                            "bitnami/mongodb:3.7.3"
                        ],
                        "sizeBytes": 407949591
                    },
                    {
                        "names": [
                            "gcr.io/istio-release/proxyv2@sha256:77915a0b8c88cce11f04caf88c9ee30300d5ba1fe13146ad5ece9abf8826204c",
                            "gcr.io/istio-release/proxyv2:1.0.0"
                        ],
                        "sizeBytes": 351025559
                    },
                    {
                        "names": [
                            "openstorage/stork@sha256:d63ef9a8b2a53adf58b952119296f42234926f8b2cd9a4c890d2140115531132",
                            "openstorage/stork:2.0.1"
                        ],
                        "sizeBytes": 324882610
                    },
                    {
                        "names": [
                            "docker.elastic.co/beats/filebeat@sha256:1ab075d016257ee7990f962a11099284e58b00f3d474f042c5d174fd48809eaa",
                            "docker.elastic.co/beats/filebeat:6.2.4"
                        ],
                        "sizeBytes": 318649092
                    },
                    {
                        "names": [
                            "postgres@sha256:8f7c3c9b61d82a4a021da5d9618faf056633e089302a726d619fa467c73609e4",
                            "postgres:latest"
                        ],
                        "sizeBytes": 314103987
                    },
                    {
                        "names": [
                            "postgres@sha256:a1e04460fdd3c338d6b65a2ab66b5aa2748eb18da3e55bcdc9ef17831ed3ad46",
                            "postgres:12"
                        ],
                        "sizeBytes": 313885624
                    },
                    {
                        "names": [
                            "mysql@sha256:8875725ff152f77e47a563661ea010b4ca9cea42d9dda897fb565ca224e83de2",
                            "mysql:5.6"
                        ],
                        "sizeBytes": 302396496
                    },
                    {
                        "names": [
                            "gcr.io/istio-release/grafana@sha256:2d8f6615009face79acc0f4868eb2f3d769465bbd5957c4bce5d498fc512afbe",
                            "gcr.io/istio-release/grafana:1.0.0"
                        ],
                        "sizeBytes": 301415612
                    },
                    {
                        "names": [
                            "gcr.io/istio-release/pilot@sha256:db61fb30f321d28c57452bd3fa4ec1592f3c89f5e1d1dc2eb6ef2289c6dd097d",
                            "gcr.io/istio-release/pilot:1.0.0"
                        ],
                        "sizeBytes": 289304760
                    },
                    {
                        "names": [
                            "k8s.gcr.io/etcd@sha256:4afb99b4690b418ffc2ceb67e1a17376457e441c1f09ab55447f0aaf992fa646",
                            "k8s.gcr.io/etcd:3.4.3-0"
                        ],
                        "sizeBytes": 288425539
                    },
                    {
                        "names": [
                            "istio/examples-bookinfo-details-v1@sha256:73e1de909cd387cf377bb51ddd90167d0f44cf0659746d1d0e50276e8f1c9df3",
                            "istio/examples-bookinfo-details-v1:1.8.0"
                        ],
                        "sizeBytes": 253808639
                    },
                    {
                        "names": [
                            "istio/examples-bookinfo-ratings-v1@sha256:f84302e53e62a8a12510c7f8f437a7a34949be3dfb37f4eb9d054a76436fa4d7",
                            "istio/examples-bookinfo-ratings-v1:1.8.0"
                        ],
                        "sizeBytes": 217896964
                    },
                    {
                        "names": [
                            "k8s.gcr.io/kube-apiserver@sha256:ff1e3568d00c3f6ed45e9d9032a1099ca44a3919afdfe6e709978b980d6de43f",
                            "k8s.gcr.io/kube-apiserver:v1.18.10"
                        ],
                        "sizeBytes": 173048808
                    },
                    {
                        "names": [
                            "k8s.gcr.io/kube-controller-manager@sha256:ae5c16b3bb1fccb3436bde805e35767889c819b34dd4fbba6b0afe5576672095",
                            "k8s.gcr.io/kube-controller-manager:v1.18.10"
                        ],
                        "sizeBytes": 162464744
                    },
                    {
                        "names": [
                            "istio/examples-bookinfo-productpage-v1@sha256:ed65a39f8b3ec5a7c7973c8e0861b89465998a0617bc0d0c76ce0a97080694a9",
                            "istio/examples-bookinfo-productpage-v1:1.8.0"
                        ],
                        "sizeBytes": 143937945
                    },
                    {
                        "names": [
                            "gcr.io/google_containers/kube-keepalived-vip@sha256:53877ea990ecb5b69e49bf07872adf298e5fde69ce7c847c26bfbf03fc28e2e0",
                            "gcr.io/google_containers/kube-keepalived-vip:0.9"
                        ],
                        "sizeBytes": 141971171
                    },
                    {
                        "names": [
                            "portworx/oci-monitor@sha256:f4da6db670305d2aed8794d71eb4d6140eaa52c5a6c3834318dbb07563f8e5b2",
                            "portworx/oci-monitor:2.0.2.3"
                        ],
                        "sizeBytes": 123402666
                    },
                    {
                        "names": [
                            "prom/prometheus@sha256:0283ae2509e1ccc71830edf382713cc3906aa55ca9418c50911854223829bf0b",
                            "prom/prometheus:v2.3.1"
                        ],
                        "sizeBytes": 118802648
                    },
                    {
                        "names": [
                            "gcr.io/istio-release/proxy_init@sha256:345c40053b53b7cc70d12fb94379e5aa0befd979a99db80833cde671bd1f9fad",
                            "gcr.io/istio-release/proxy_init:1.0.0"
                        ],
                        "sizeBytes": 118767394
                    },
                    {
                        "names": [
                            "k8s.gcr.io/kube-proxy@sha256:0b30d182bac0e9efac530ca043a7cdc492b5c26488cda53e68e3f8ecfa4072ea",
                            "k8s.gcr.io/kube-proxy:v1.18.10"
                        ],
                        "sizeBytes": 117265519
                    },
                    {
                        "names": [
                            "k8s.gcr.io/kube-proxy@sha256:9e858386d52d0abaf936c1d10a763648ab7d85c8eb0af08a50a64238146e5571",
                            "k8s.gcr.io/kube-proxy:v1.18.0"
                        ],
                        "sizeBytes": 116531001
                    },
                    {
                        "names": [
                            "katacoda/katacoda-cloud-provider@sha256:a3fc724edf55caf8a61601ed0ee63fef1a4a0722a9bdbfe75c4a0162bc20a26a",
                            "katacoda/katacoda-cloud-provider:0.0.1"
                        ],
                        "sizeBytes": 116021307
                    },
                    {
                        "names": [
                            "prom/prometheus@sha256:129e16b08818a47259d972767fd834d84fb70ca11b423cc9976c9bce9b40c58f",
                            "prom/prometheus:v2.2.1"
                        ],
                        "sizeBytes": 113268574
                    },
                    {
                        "names": [
                            "gcr.io/google_samples/gb-redisslave@sha256:90f62695e641e1a27d1a5e0bbb8b622205a48e18311b51b0da419ffad24b9016",
                            "gcr.io/google_samples/gb-redisslave:v1"
                        ],
                        "sizeBytes": 109462535
                    },
                    {
                        "names": [
                            "redis@sha256:a0494b60a0bc6de161d26dc2d2f9d2f1c5435e86a9e5d48862a161131affa6bd",
                            "redis:latest"
                        ],
                        "sizeBytes": 104226532
                    },
                    {
                        "names": [
                            "k8s.gcr.io/kube-scheduler@sha256:1da1284ab66e12db5e1b0d68fbc1c6c119418d81c5b922474987376754931b53",
                            "k8s.gcr.io/kube-scheduler:v1.18.10"
                        ],
                        "sizeBytes": 95319016
                    },
                    {
                        "names": [
                            "gcr.io/kubernetes-helm/tiller@sha256:d52b34a9f9aeec1cf74155ca51fcbb5d872a705914565c782be4531790a4ee0e",
                            "gcr.io/kubernetes-helm/tiller:v2.13.1"
                        ],
                        "sizeBytes": 82083791
                    },
                    {
                        "names": [
                            "weaveworks/scope@sha256:8c44d6761e197cc5c901d8b017d3afc528d3437aa057d5f2dee7fab39a9bfb3f",
                            "weaveworks/scope:1.11.4"
                        ],
                        "sizeBytes": 78473749
                    },
                    {
                        "names": [
                            "ubuntu@sha256:fff16eea1a8ae92867721d90c59a75652ea66d29c05294e6e2f898704bdb8cf1",
                            "ubuntu:latest"
                        ],
                        "sizeBytes": 72876612
                    },
                    {
                        "names": [
                            "weaveworks/scope@sha256:651cc9ac380803a83e19af40943ebece696448b053d3f80f3fd86b430e558606",
                            "weaveworks/scope:1.9.1"
                        ],
                        "sizeBytes": 68005975
                    },
                    {
                        "names": [
                            "gcr.io/istio-release/galley@sha256:01394fea1e55de6d4c7fbfc28c2dd7462bd26e093008367972b04e29d5b475cf",
                            "gcr.io/istio-release/galley:1.0.0"
                        ],
                        "sizeBytes": 65758296
                    },
                    {
                        "names": [
                            "gcr.io/istio-release/mixer@sha256:e627b16141c7b32a8944b7a2fbe251407425a50d83d0fb401410550502886930",
                            "gcr.io/istio-release/mixer:1.0.0"
                        ],
                        "sizeBytes": 64404258
                    },
                    {
                        "names": [
                            "gcr.io/google_containers/kube-scheduler-amd64@sha256:79b5b697b1bc1023b5f18a792ea7020c4ad8403d861169b1b420d3fe673b9fe4",
                            "gcr.io/google_containers/kube-scheduler-amd64:v1.8.0"
                        ],
                        "sizeBytes": 54884009
                    },
                    {
                        "names": [
                            "quay.io/coreos/flannel@sha256:a2f5081b71ee4688d0c7693d7e5f2f95e9eea5ea3b4147a12179f55ede42c185",
                            "quay.io/coreos/flannel:v0.12.0-arm64"
                        ],
                        "sizeBytes": 53582226
                    },
                    {
                        "names": [
                            "quay.io/coreos/flannel@sha256:6d451d92c921f14bfb38196aacb6e506d4593c5b3c9d40a8b8a2506010dc3e10",
                            "quay.io/coreos/flannel:v0.12.0-amd64"
                        ],
                        "sizeBytes": 52745840
                    }
                ],
                "nodeInfo": {
                    "architecture": "amd64",
                    "bootID": "c2bb57e6-beb4-4a99-b074-a24389b956b8",
                    "containerRuntimeVersion": "docker://19.3.13",
                    "kernelVersion": "4.15.0-122-generic",
                    "kubeProxyVersion": "v1.18.0",
                    "kubeletVersion": "v1.18.0",
                    "machineID": "b2cae5b5dbb3c2850e95993561470cb9",
                    "operatingSystem": "linux",
                    "osImage": "Ubuntu 18.04.5 LTS",
                    "systemUUID": "b2cae5b5dbb3c2850e95993561470cb9"
                }
            }
        }
    ],
    "kind": "List",
    "metadata": {
        "resourceVersion": "",
        "selfLink": ""
    }
}
